{
  "type": "service_account",
  "project_id": "itdata-308413",
  "private_key_id": "21d2e869f3cb561e4011b293ddec908432e0202c",
  "private_key": "-----BEGIN PRIVATE KEY-----\nMIIEvgIBADANBgkqhkiG9w0BAQEFAASCBKgwggSkAgEAAoIBAQC2GP+0AovYtQsp\ni7je0AtDyMVSEDSDjrNlzWTkxIBXSY9SAynuEEocdCMwJL7jRzjZ8edY4Fy6wWlp\nnqE+kPJVkTufq8RmDRdCpN9m5kKt8JslBM4HbtJnzMFUCs+GDYgyv7zBQAfJYCrd\numbELK4YQHSHT2kPRQiLckdSbfakFWBG92zMfthf98D4f7i0sXVnDP/cOllhpajh\nYI4OH33mOvJ89SJidxI6eV6NydeK9bWPnMR0P1x9H+Mc7yZ7Rv1zNBMnx/vGBLLk\nVR/z+6T9QdSJq2vMB4o4Ze0/+IMkeuKmNLc6afTCGsbZbA8eNOPdVoZCGH2AMM9t\nREKPraODAgMBAAECggEAQm9gauY66zcx+VhWfEPeuD45bzUmU5Dudoe29ZeTU0Ut\nGri4xXf/8d2VMO1XD0hev3T3+H7yldgWg0gyf8cWAo3X+OsL3keMYu4P61S6owcT\nMzBLkn6mGOSk6+p9x+SL+iflz4Ny089YFEj7UTsT0RlC6lLYe4+uDGIHD1W7FCVw\nqJOU2MP/+aw9HrLv8u9rVUbLCFEkQ0/Wisg9PsRA5RM0ppCUZ49y8cbcQrASGlh/\nqoNRz5pO5Am6yeuBPcuvwWlM7+NunZyGG0q7g8yoI9OA40GpyHBOGj+v9eGZeWFw\nABWwgEUGeUWrUIGlo2eEumnYoTgYs/XgpYQARbZvgQKBgQD+lujukaOgd8Ntzx1j\nyOFEv41BIVw+mXtpnBnihfhbiiO/5SFridd8ria80ijjxU++iuRSEvVohHoauvJZ\nV8XUolGx5DuhpQkcycMn10WoQ2aWE9Rnr+ZST7+3NnHxrQTw01ICfTUdgnrapizq\nVVn5lIWzfqGxqzqL5AftQsi3owKBgQC3G0WpKRhpHnxUlhm7iWGr4d8IS5m5hCz3\n3vQOUtaZ5dfsW9sMelG9fiujG7VJZpY0UJmQmzCogYRTZ2Fu1y0olw5hl//qgoJ5\nTe65cz3WAUZTcAJuiNiI46QGT5MJsZbHQjJsNifbL3ovgFjLsU8ln1IWE5uFfMu6\n1oKzX5+ioQKBgQDabFjuDY+n5fiKZo6dhMQYeotTHK8Kmh2yzxW6LhyVVOA1C/1v\nSPTS6IsdpuUj/a3cGUeoTtGz2Sz1b/zqwA5fzt9uUxUCKxi1VTkVHnGJ2kHScrLi\nPpzJc9hU9OYvZbT+dR9AOXHvnnmOy9FvPskSAuXuyK8rQm/Zg0t1uL2CJwKBgAW1\n+Ao6meRNaxtIQy0yL7Woqcgcc4LxuGVSstHvi3npTT617rMI7Zu3X60KpDDR3kVr\nbh6weGgJAhOH2eYXF/V4IJ6ymuy5fVBDOfrWuUr/Zy4bBDhmVDqQvwDjYnae71Dv\no5r0ZXHUnT72Bc70jL9jpK/DlMopBkGhhxoJFXWBAoGBAMiCQF0BndkoxtWRZPeM\nJDzwnHy0mvTCsenOUQcnyHVS5nlA6VKzlWw+XMEIQQebF0xSLLR2FFY67CcLo+pb\nXHhxH7T+hBsRFOWgm8RUxlg0jONIXbQrS9Mv8Pmk1orRo85toI/tyjTYSGg+jnpj\ncl3CwqURnl1oI2iRG2TTjY4o\n-----END PRIVATE KEY-----\n",
  "client_email": "itdata@itdata-308413.iam.gserviceaccount.com",
  "client_id": "104886359571834357838",
  "auth_uri": "https://accounts.google.com/o/oauth2/auth",
  "token_uri": "https://oauth2.googleapis.com/token",
  "auth_provider_x509_cert_url": "https://www.googleapis.com/oauth2/v1/certs",
  "client_x509_cert_url": "https://www.googleapis.com/robot/v1/metadata/x509/itdata%40itdata-308413.iam.gserviceaccount.com"
}